%!PS-Adobe-3.0 EPSF-3.0
%%Creator: cairo 1.15.10 (http://cairographics.org)
%%CreationDate: Wed Jan 24 18:52:13 2018
%%Pages: 1
%%DocumentData: Clean7Bit
%%LanguageLevel: 2
%%BoundingBox: 0 0 1206 132
%%EndComments
%%BeginProlog
50 dict begin
/q { gsave } bind def
/Q { grestore } bind def
/cm { 6 array astore concat } bind def
/w { setlinewidth } bind def
/J { setlinecap } bind def
/j { setlinejoin } bind def
/M { setmiterlimit } bind def
/d { setdash } bind def
/m { moveto } bind def
/l { lineto } bind def
/c { curveto } bind def
/h { closepath } bind def
/re { exch dup neg 3 1 roll 5 3 roll moveto 0 rlineto
      0 exch rlineto 0 rlineto closepath } bind def
/S { stroke } bind def
/f { fill } bind def
/f* { eofill } bind def
/n { newpath } bind def
/W { clip } bind def
/W* { eoclip } bind def
/BT { } bind def
/ET { } bind def
/BDC { mark 3 1 roll /BDC pdfmark } bind def
/EMC { mark /EMC pdfmark } bind def
/cairo_store_point { /cairo_point_y exch def /cairo_point_x exch def } def
/Tj { show currentpoint cairo_store_point } bind def
/TJ {
  {
    dup
    type /stringtype eq
    { show } { -0.001 mul 0 cairo_font_matrix dtransform rmoveto } ifelse
  } forall
  currentpoint cairo_store_point
} bind def
/cairo_selectfont { cairo_font_matrix aload pop pop pop 0 0 6 array astore
    cairo_font exch selectfont cairo_point_x cairo_point_y moveto } bind def
/Tf { pop /cairo_font exch def /cairo_font_matrix where
      { pop cairo_selectfont } if } bind def
/Td { matrix translate cairo_font_matrix matrix concatmatrix dup
      /cairo_font_matrix exch def dup 4 get exch 5 get cairo_store_point
      /cairo_font where { pop cairo_selectfont } if } bind def
/Tm { 2 copy 8 2 roll 6 array astore /cairo_font_matrix exch def
      cairo_store_point /cairo_font where { pop cairo_selectfont } if } bind def
/g { setgray } bind def
/rg { setrgbcolor } bind def
/d1 { setcachedevice } bind def
/cairo_data_source {
  CairoDataIndex CairoData length lt
    { CairoData CairoDataIndex get /CairoDataIndex CairoDataIndex 1 add def }
    { () } ifelse
} def
/cairo_flush_ascii85_file { cairo_ascii85_file status { cairo_ascii85_file flushfile } if } def
/cairo_image { image cairo_flush_ascii85_file } def
/cairo_imagemask { imagemask cairo_flush_ascii85_file } def
%%EndProlog
%%BeginSetup
%%EndSetup
%%Page: 1 1
%%BeginPageSetup
%%PageBoundingBox: 0 0 1206 132
%%EndPageSetup
q 0 0 1206 132 rectclip
1 0 0 -1 0 132 cm q
0.984314 0.737255 0.0196078 rg
85.273 112.574 m 112.574 112.574 l 112.574 85.273 l 131.852 66 l 112.574
 46.727 l 112.574 19.426 l 85.273 19.426 l 66 0.148 l 46.727 19.426 l 19.426
 19.426 l 19.426 46.727 l 0.148 66 l 19.426 85.273 l 19.426 112.574 l 46.727
 112.574 l 66 131.852 l h
85.273 112.574 m f*
1 g
66 23.926 m 89.25 23.926 108.074 42.824 108.074 66 c 108.074 89.176 89.25
 108.148 66 108.148 c 42.75 108.148 23.926 89.25 23.926 66 c 23.926 42.75
 42.75 23.926 66 23.926 c 66 21.523 m 41.398 21.523 21.523 41.477 21.523
 66 c 21.523 90.523 41.477 110.477 66 110.477 c 90.523 110.477 110.477 90.523
 110.477 66 c 110.477 41.477 90.602 21.523 66 21.523 c f*
68.102 45.375 m 68.023 45.676 l 59.102 85.051 l 58.801 86.551 l 64.352 
86.551 l 64.426 86.25 l 73.352 46.875 l 73.648 45.375 l h
53.926 50.773 m 53.176 51.301 l 37.051 63.824 l 36 64.648 l 36 67.199 l
 37.051 68.023 l 53.176 80.551 l 53.926 81.074 l 53.926 74.324 l 43.051 
66 l 53.926 57.523 l h
78.074 50.773 m 78.074 57.523 l 88.949 66 l 78.074 74.477 l 78.074 81.227
 l 78.824 80.699 l 94.949 68.176 l 96 67.352 l 96 64.801 l 94.949 63.977
 l 78.75 51.375 l h
78.074 50.773 m f*
6 w
0 J
0 j
[] 0.0 d
4 M q 1 0 0 1 0 0 cm
110.023 66 m 110.023 90.312 90.312 110.023 66 110.023 c 41.688 110.023 
21.977 90.312 21.977 66 c 21.977 41.688 41.688 21.977 66 21.977 c 90.312
 21.977 110.023 41.688 110.023 66 c h
110.023 66 m S Q
0.458824 g
528.676 72 m 521.102 69.824 515.551 67.125 512.102 63.977 c 508.648 60.824
 506.926 56.852 506.926 52.199 c 506.926 46.875 509.023 42.523 513.301 39.074
 c 517.574 35.625 523.051 33.898 529.801 33.898 c 534.449 33.898 538.5 34.801
 542.176 36.602 c 545.773 38.398 548.625 40.875 550.574 43.949 c 552.523
 47.023 553.574 50.551 553.574 54.227 c 544.5 54.227 l 544.5 50.176 543.227
 46.949 540.602 44.625 c 538.051 42.301 534.375 41.102 529.648 41.102 c 
525.301 41.102 521.852 42.074 519.449 44.023 c 517.051 45.977 515.773 48.602
 515.773 52.051 c 515.773 54.824 516.898 57.148 519.227 59.023 c 521.551
 60.898 525.523 62.625 531.074 64.199 c 536.625 65.773 541.051 67.5 544.199
 69.375 c 547.352 71.25 549.676 73.5 551.25 75.977 c 552.75 78.523 553.5
 81.449 553.5 84.898 c 553.5 90.375 551.398 94.727 547.125 97.949 c 542.852
 101.176 537.227 102.898 530.102 102.898 c 525.449 102.898 521.176 102 517.199
 100.273 c 513.227 98.551 510.148 96.074 507.977 93 c 505.801 89.926 504.75
 86.398 504.75 82.5 c 513.676 82.5 l 513.676 86.551 515.176 89.773 518.176
 92.102 c 521.176 94.426 525.148 95.625 530.176 95.625 c 534.824 95.625 
538.426 94.648 540.898 92.773 c 543.375 90.898 544.648 88.273 544.648 84.977
 c 544.648 81.676 543.523 79.125 541.199 77.324 c 538.875 75.523 534.676
 73.801 528.676 72 c h
528.676 72 m f*
594.375 97.051 m 591.074 100.949 586.199 102.898 579.75 102.898 c 574.426
 102.898 570.375 101.324 567.602 98.25 c 564.824 95.176 563.398 90.602 563.398
 84.523 c 563.398 52.051 l 571.949 52.051 l 571.949 84.301 l 571.949 91.875
 575.023 95.625 581.176 95.625 c 587.699 95.625 592.051 93.227 594.148 88.352
 c 594.148 52.051 l 602.699 52.051 l 602.699 102 l 594.602 102 l h
594.375 97.051 m f*
623.699 52.051 m 623.926 57.602 l 627.602 53.324 632.551 51.148 638.699
 51.148 c 645.676 51.148 650.398 53.852 652.949 59.176 c 654.602 56.773 
656.773 54.824 659.398 53.324 c 662.023 51.824 665.176 51.074 668.852 51.074
 c 679.801 51.074 685.352 56.852 685.574 68.477 c 685.574 102 l 677.023 
102 l 677.023 69 l 677.023 65.398 676.199 62.773 674.551 60.977 c 672.898
 59.176 670.199 58.352 666.301 58.352 c 663.148 58.352 660.523 59.324 658.426
 61.199 c 656.324 63.074 655.125 65.625 654.75 68.852 c 654.75 102 l 646.199
 102 l 646.199 69.301 l 646.199 62.023 642.676 58.426 635.551 58.426 c 629.926
 58.426 626.102 60.824 624.074 65.551 c 624.074 102 l 615.523 102 l 615.523
 52.051 l h
623.699 52.051 m f*
706.5 52.051 m 706.727 57.602 l 710.398 53.324 715.352 51.148 721.5 51.148
 c 728.477 51.148 733.199 53.852 735.75 59.176 c 737.398 56.773 739.574 
54.824 742.199 53.324 c 744.824 51.824 747.977 51.074 751.648 51.074 c 762.602
 51.074 768.148 56.852 768.375 68.477 c 768.375 102 l 759.824 102 l 759.824
 69 l 759.824 65.398 759 62.773 757.352 60.977 c 755.699 59.176 753 58.352
 749.102 58.352 c 745.949 58.352 743.324 59.324 741.227 61.199 c 739.125
 63.074 737.926 65.625 737.551 68.852 c 737.551 102 l 729 102 l 729 69.301
 l 729 62.023 725.477 58.426 718.352 58.426 c 712.727 58.426 708.898 60.824
 706.875 65.551 c 706.875 102 l 698.324 102 l 698.324 52.051 l h
706.5 52.051 m f*
802.051 102.898 m 795.301 102.898 789.75 100.648 785.551 96.227 c 781.273
 91.801 779.176 85.801 779.176 78.375 c 779.176 76.801 l 779.176 71.852 
780.148 67.426 782.023 63.523 c 783.898 59.625 786.523 56.625 789.977 54.375
 c 793.352 52.199 797.023 51.074 801 51.074 c 807.523 51.074 812.551 53.25
 816.148 57.523 c 819.75 61.801 821.551 67.949 821.551 75.898 c 821.551 
79.426 l 787.727 79.426 l 787.875 84.375 789.301 88.352 792.074 91.352 c
 794.852 94.352 798.301 95.926 802.574 95.926 c 805.574 95.926 808.125 95.324
 810.227 94.051 c 812.324 92.852 814.125 91.199 815.699 89.176 c 820.949
 93.227 l 816.676 99.676 810.375 102.898 802.051 102.898 c h
801 58.125 m 797.551 58.125 794.699 59.398 792.301 61.875 c 789.977 64.352
 788.551 67.875 787.949 72.449 c 812.926 72.449 l 812.926 71.773 l 812.699
 67.426 811.5 64.051 809.398 61.727 c 807.375 59.324 804.523 58.125 801 
58.125 c h
801 58.125 m f*
855.523 59.699 m 854.25 59.477 852.824 59.398 851.324 59.398 c 845.699 
59.398 841.949 61.801 839.926 66.523 c 839.926 102 l 831.375 102 l 831.375
 52.051 l 839.699 52.051 l 839.852 57.824 l 842.625 53.398 846.602 51.148
 851.773 51.148 c 853.426 51.148 854.699 51.375 855.523 51.824 c h
855.523 59.699 m f*
884.477 76.574 m 884.477 71.699 885.449 67.273 887.324 63.375 c 889.273
 59.477 891.898 56.477 895.352 54.301 c 898.801 52.125 902.699 51.148 907.125
 51.148 c 913.949 51.148 919.426 53.477 923.625 58.199 c 927.824 62.926 
929.926 69.148 929.926 76.949 c 929.926 77.551 l 929.926 82.426 929.023 
86.773 927.148 90.602 c 925.273 94.426 922.648 97.5 919.199 99.602 c 915.75
 101.773 911.773 102.824 907.273 102.824 c 900.523 102.824 895.051 100.5
 890.852 95.773 c 886.648 91.051 884.551 84.824 884.551 77.102 c 884.551
 76.574 l h
893.102 77.551 m 893.102 83.102 894.375 87.523 896.926 90.898 c 899.477
 94.273 902.926 95.926 907.273 95.926 c 911.625 95.926 915.074 94.199 917.625
 90.824 c 920.176 87.449 921.449 82.648 921.449 76.574 c 921.449 71.102 
920.176 66.676 917.551 63.301 c 914.926 59.926 911.477 58.199 907.199 58.199
 c 903 58.199 899.551 59.852 897 63.227 c 894.375 66.523 893.102 71.324 
893.102 77.551 c h
893.102 77.551 m f*
944.852 102 m 944.852 58.648 l 936.977 58.648 l 936.977 52.051 l 944.852
 52.051 l 944.852 46.949 l 944.852 41.625 946.273 37.426 949.125 34.574 
c 951.977 31.648 956.023 30.227 961.273 30.227 c 963.227 30.227 965.176 
30.449 967.125 30.977 c 966.676 37.875 l 965.25 37.574 963.676 37.426 962.023
 37.426 c 959.25 37.426 957.148 38.25 955.574 39.824 c 954 41.398 953.324
 43.801 953.324 46.801 c 953.324 52.051 l 963.977 52.051 l 963.977 58.648
 l 953.324 58.648 l 953.324 102 l h
944.852 102 m f*
1047.602 80.625 m 1046.773 87.75 1044.148 93.227 1039.727 97.051 c 1035.301
 100.875 1029.449 102.824 1022.102 102.824 c 1014.148 102.824 1007.773 99.977
 1003.051 94.273 c 998.25 88.574 995.852 81 995.852 71.398 c 995.852 64.949
 l 995.852 58.727 996.977 53.25 999.227 48.449 c 1001.477 43.727 1004.625
 40.051 1008.676 37.5 c 1012.727 34.949 1017.523 33.676 1022.852 33.676 
c 1029.977 33.676 1035.676 35.699 1040.023 39.676 c 1044.301 43.648 1046.852
 49.199 1047.523 56.25 c 1038.602 56.25 l 1037.852 50.852 1036.125 47.023
 1033.574 44.551 c 1031.023 42.074 1027.426 40.949 1022.773 40.949 c 1017.148
 40.949 1012.648 43.051 1009.5 47.25 c 1006.273 51.449 1004.699 57.375 1004.699
 65.102 c 1004.699 71.625 l 1004.699 78.898 1006.199 84.75 1009.273 89.023
 c 1012.352 93.301 1016.551 95.477 1022.023 95.477 c 1026.977 95.477 1030.727
 94.352 1033.352 92.102 c 1035.977 89.852 1037.699 85.949 1038.602 80.477
 c 1047.602 80.477 l h
1047.602 80.625 m f*
1056.074 76.574 m 1056.074 71.699 1057.051 67.273 1058.926 63.375 c 1060.875
 59.477 1063.5 56.477 1066.949 54.301 c 1070.398 52.125 1074.301 51.148 
1078.727 51.148 c 1085.551 51.148 1091.023 53.477 1095.227 58.199 c 1099.426
 62.926 1101.523 69.148 1101.523 76.949 c 1101.523 77.551 l 1101.523 82.426
 1100.625 86.773 1098.75 90.602 c 1096.875 94.426 1094.25 97.5 1090.801 
99.602 c 1087.352 101.773 1083.375 102.824 1078.875 102.824 c 1072.125 102.824
 1066.648 100.5 1062.449 95.773 c 1058.25 91.051 1056.148 84.824 1056.148
 77.102 c 1056.148 76.574 l h
1064.699 77.551 m 1064.699 83.102 1065.977 87.523 1068.523 90.898 c 1071.074
 94.273 1074.523 95.926 1078.875 95.926 c 1083.227 95.926 1086.676 94.199
 1089.227 90.824 c 1091.773 87.449 1093.051 82.648 1093.051 76.574 c 1093.051
 71.102 1091.773 66.676 1089.148 63.301 c 1086.523 59.926 1083.074 58.199
 1078.801 58.199 c 1074.602 58.199 1071.148 59.852 1068.602 63.227 c 1065.977
 66.523 1064.699 71.324 1064.699 77.551 c h
1064.699 77.551 m f*
1110.148 76.574 m 1110.148 68.926 1111.949 62.773 1115.625 58.125 c 1119.301
 53.477 1124.023 51.148 1129.875 51.148 c 1135.727 51.148 1140.375 53.176
 1143.75 57.148 c 1143.75 31.125 l 1152.301 31.125 l 1152.301 102 l 1144.426
 102 l 1143.977 96.676 l 1140.523 100.875 1135.801 102.977 1129.727 102.977
 c 1123.949 102.977 1119.227 100.574 1115.551 95.852 c 1111.875 91.125 1110.074
 84.898 1110.074 77.324 c 1110.074 76.574 l h
1118.699 77.551 m 1118.699 83.176 1119.898 87.676 1122.227 90.824 c 1124.551
 94.051 1127.773 95.625 1131.898 95.625 c 1137.301 95.625 1141.273 93.227
 1143.75 88.352 c 1143.75 65.398 l 1141.199 60.676 1137.301 58.352 1131.977
 58.352 c 1127.773 58.352 1124.551 60 1122.227 63.227 c 1119.898 66.449 
1118.699 71.25 1118.699 77.551 c h
1118.699 77.551 m f*
1186.273 102.898 m 1179.523 102.898 1173.977 100.648 1169.773 96.227 c 
1165.5 91.801 1163.398 85.801 1163.398 78.375 c 1163.398 76.801 l 1163.398
 71.852 1164.375 67.426 1166.25 63.523 c 1168.125 59.625 1170.75 56.625 
1174.199 54.375 c 1177.574 52.199 1181.25 51.074 1185.227 51.074 c 1191.75
 51.074 1196.773 53.25 1200.375 57.523 c 1203.977 61.801 1205.773 67.949
 1205.773 75.898 c 1205.773 79.426 l 1171.949 79.426 l 1172.102 84.375 1173.523
 88.352 1176.301 91.352 c 1179.074 94.352 1182.523 95.926 1186.801 95.926
 c 1189.801 95.926 1192.352 95.324 1194.449 94.051 c 1196.551 92.852 1198.352
 91.199 1199.926 89.176 c 1205.176 93.227 l 1200.898 99.676 1194.602 102.898
 1186.273 102.898 c h
1185.227 58.125 m 1181.773 58.125 1178.926 59.398 1176.523 61.875 c 1174.199
 64.352 1172.773 67.875 1172.176 72.449 c 1197.148 72.449 l 1197.148 71.773
 l 1196.926 67.426 1195.727 64.051 1193.625 61.727 c 1191.602 59.324 1188.75
 58.125 1185.227 58.125 c h
1185.227 58.125 m f*
237.098 35.926 m 243.781 39.438 247.871 45.586 249.363 54.375 c 240.348
 54.375 l 239.25 49.461 236.977 45.883 233.527 43.641 c 230.078 41.398 225.73
 40.277 220.48 40.277 c 214.254 40.277 209.012 42.609 204.758 47.281 c 200.5
 51.949 198.371 58.906 198.371 68.152 c 198.371 76.148 200.125 82.656 203.633
 87.676 c 207.145 92.699 212.867 95.207 220.801 95.207 c 226.875 95.207 
231.902 93.445 235.883 89.922 c 239.867 86.395 241.902 80.695 241.996 72.824
 c 220.938 72.824 l 220.938 65.27 l 250.465 65.27 l 250.465 101.25 l 244.605
 101.25 l 242.406 92.598 l 239.324 95.984 236.594 98.336 234.215 99.648 
c 230.215 101.906 225.133 103.035 218.969 103.035 c 211.004 103.035 204.152
 100.457 198.418 95.301 c 192.16 88.828 189.031 79.949 189.031 68.656 c 
189.031 57.395 192.082 48.438 198.188 41.785 c 203.984 35.438 211.492 32.266
 220.711 32.266 c 227.027 32.266 232.488 33.484 237.098 35.926 c h
294.156 89.738 m 296.188 85.602 297.203 81 297.203 75.938 c 297.203 71.359
 296.469 67.637 295.004 64.766 c 292.684 60.25 288.688 57.992 283.012 57.992
 c 277.977 57.992 274.312 59.914 272.023 63.758 c 269.734 67.605 268.59 
72.242 268.59 77.676 c 268.59 82.895 269.734 87.242 272.023 90.723 c 274.312
 94.199 277.945 95.941 282.918 95.941 c 288.383 95.941 292.129 93.871 294.156
 89.738 c h
299.262 57.121 m 303.625 61.332 305.809 67.527 305.809 75.707 c 305.809
 83.609 303.887 90.141 300.039 95.301 c 296.195 100.457 290.227 103.035 
282.141 103.035 c 275.398 103.035 270.039 100.754 266.074 96.191 c 262.105
 91.629 260.121 85.504 260.121 77.812 c 260.121 69.574 262.215 63.012 266.395
 58.129 c 270.574 53.246 276.191 50.805 283.238 50.805 c 289.559 50.805 
294.898 52.91 299.262 57.121 c h
346.297 89.738 m 348.324 85.602 349.34 81 349.34 75.938 c 349.34 71.359
 348.609 67.637 347.145 64.766 c 344.824 60.25 340.828 57.992 335.148 57.992
 c 330.113 57.992 326.453 59.914 324.164 63.758 c 321.875 67.605 320.73 
72.242 320.73 77.676 c 320.73 82.895 321.875 87.242 324.164 90.723 c 326.453
 94.199 330.086 95.941 335.059 95.941 c 340.52 95.941 344.266 93.871 346.297
 89.738 c h
351.402 57.121 m 355.766 61.332 357.945 67.527 357.945 75.707 c 357.945
 83.609 356.023 90.141 352.18 95.301 c 348.332 100.457 342.367 103.035 334.281
 103.035 c 327.535 103.035 322.18 100.754 318.211 96.191 c 314.246 91.629
 312.262 85.504 312.262 77.812 c 312.262 69.574 314.352 63.012 318.531 58.129
 c 322.715 53.246 328.328 50.805 335.379 50.805 c 341.695 50.805 347.035
 52.91 351.402 57.121 c h
395.117 54.191 m 396.672 55.262 398.262 56.816 399.879 58.859 c 399.879
 52.68 l 407.477 52.68 l 407.477 97.266 l 407.477 103.492 406.562 108.406
 404.73 112.008 c 401.312 118.66 394.859 121.988 385.367 121.988 c 380.086
 121.988 375.648 120.805 372.047 118.438 c 368.445 116.074 366.43 112.375
 366.004 107.34 c 374.379 107.34 l 374.777 109.535 375.57 111.23 376.762
 112.418 c 378.621 114.25 381.551 115.168 385.551 115.168 c 391.867 115.168
 396.004 112.938 397.957 108.484 c 399.113 105.859 399.648 101.172 399.559
 94.43 c 397.91 96.934 395.926 98.793 393.605 100.016 c 391.285 101.234 
388.219 101.844 384.406 101.844 c 379.094 101.844 374.449 99.961 370.465
 96.191 c 366.484 92.422 364.492 86.191 364.492 77.492 c 364.492 69.281 
366.5 62.875 370.512 58.266 c 374.523 53.656 379.371 51.355 385.047 51.355
 c 388.891 51.355 392.25 52.301 395.117 54.191 c h
396.125 63.027 m 393.621 60.098 390.434 58.633 386.559 58.633 c 380.758
 58.633 376.793 61.348 374.656 66.781 c 373.527 69.68 372.961 73.48 372.961
 78.18 c 372.961 83.703 374.082 87.906 376.324 90.789 c 378.57 93.676 381.582
 95.117 385.367 95.117 c 391.289 95.117 395.453 92.445 397.863 87.105 c 
399.207 84.082 399.879 80.559 399.879 76.531 c 399.879 70.457 398.625 65.957
 396.125 63.027 c h
420.109 34.004 m 428.352 34.004 l 428.352 101.25 l 420.109 101.25 l h
471.242 53.574 m 474.508 55.207 476.996 57.32 478.703 59.914 c 480.352 
62.387 481.453 65.27 482 68.566 c 482.488 70.824 482.734 74.426 482.734 
79.367 c 446.797 79.367 l 446.953 84.344 448.125 88.332 450.324 91.34 c 
452.52 94.344 455.922 95.848 460.531 95.848 c 464.836 95.848 468.27 94.43
 470.832 91.59 c 472.297 89.941 473.332 88.035 473.945 85.871 c 482.047 
85.871 l 481.832 87.668 481.125 89.676 479.918 91.891 c 478.711 94.102 477.363
 95.91 475.867 97.312 c 473.363 99.754 470.266 101.402 466.574 102.258 c
 464.59 102.746 462.348 102.988 459.844 102.988 c 453.742 102.988 448.57
 100.77 444.328 96.328 c 440.086 91.891 437.965 85.672 437.965 77.676 c 
437.965 69.801 440.102 63.41 444.371 58.496 c 448.645 53.582 454.23 51.125
 461.125 51.125 c 464.605 51.125 467.977 51.941 471.242 53.574 c h
474.266 72.824 m 473.93 69.254 473.152 66.398 471.93 64.262 c 469.672 60.297
 465.902 58.312 460.621 58.312 c 456.84 58.312 453.664 59.676 451.102 62.41
 c 448.539 65.141 447.18 68.613 447.027 72.824 c h
474.266 72.824 m f*
Q Q
showpage
%%Trailer
end
%%EOF
