%!PS-Adobe-3.0 EPSF-3.0
%%Creator: cairo 1.15.10 (http://cairographics.org)
%%CreationDate: Wed Jan 17 18:06:28 2018
%%Pages: 1
%%DocumentData: Clean7Bit
%%LanguageLevel: 3
%%BoundingBox: 25 15 298 245
%%EndComments
%%BeginProlog
50 dict begin
/q { gsave } bind def
/Q { grestore } bind def
/cm { 6 array astore concat } bind def
/w { setlinewidth } bind def
/J { setlinecap } bind def
/j { setlinejoin } bind def
/M { setmiterlimit } bind def
/d { setdash } bind def
/m { moveto } bind def
/l { lineto } bind def
/c { curveto } bind def
/h { closepath } bind def
/re { exch dup neg 3 1 roll 5 3 roll moveto 0 rlineto
      0 exch rlineto 0 rlineto closepath } bind def
/S { stroke } bind def
/f { fill } bind def
/f* { eofill } bind def
/n { newpath } bind def
/W { clip } bind def
/W* { eoclip } bind def
/BT { } bind def
/ET { } bind def
/BDC { mark 3 1 roll /BDC pdfmark } bind def
/EMC { mark /EMC pdfmark } bind def
/cairo_store_point { /cairo_point_y exch def /cairo_point_x exch def } def
/Tj { show currentpoint cairo_store_point } bind def
/TJ {
  {
    dup
    type /stringtype eq
    { show } { -0.001 mul 0 cairo_font_matrix dtransform rmoveto } ifelse
  } forall
  currentpoint cairo_store_point
} bind def
/cairo_selectfont { cairo_font_matrix aload pop pop pop 0 0 6 array astore
    cairo_font exch selectfont cairo_point_x cairo_point_y moveto } bind def
/Tf { pop /cairo_font exch def /cairo_font_matrix where
      { pop cairo_selectfont } if } bind def
/Td { matrix translate cairo_font_matrix matrix concatmatrix dup
      /cairo_font_matrix exch def dup 4 get exch 5 get cairo_store_point
      /cairo_font where { pop cairo_selectfont } if } bind def
/Tm { 2 copy 8 2 roll 6 array astore /cairo_font_matrix exch def
      cairo_store_point /cairo_font where { pop cairo_selectfont } if } bind def
/g { setgray } bind def
/rg { setrgbcolor } bind def
/d1 { setcachedevice } bind def
/cairo_data_source {
  CairoDataIndex CairoData length lt
    { CairoData CairoDataIndex get /CairoDataIndex CairoDataIndex 1 add def }
    { () } ifelse
} def
/cairo_flush_ascii85_file { cairo_ascii85_file status { cairo_ascii85_file flushfile } if } def
/cairo_image { image cairo_flush_ascii85_file } def
/cairo_imagemask { imagemask cairo_flush_ascii85_file } def
%%EndProlog
%%BeginSetup
%%EndSetup
%%Page: 1 1
%%BeginPageSetup
%%PageBoundingBox: 25 15 298 245
%%EndPageSetup
q 25 15 273 230 rectclip
1 0 0 -1 0 259 cm q
0 g
53.359 243.75 m 136.684 134.809 l 50.902 15.023 l 106.035 15.07 l 174.391
 109.258 l 72.188 243.75 l h
216.445 243.828 m 148.566 149.48 l 251.617 14.922 l 269.98 14.922 l 186.316
 124.379 l 271.582 243.828 l h
216.445 243.828 m f
q
161.613 58.594 m 154.977 58.594 147.883 59.109 141.5 59.723 c 152.871 74.555
 162.312 87.117 173.172 101.387 c 167.078 88.266 154.547 75.684 158.879 
69.215 c 163.164 62.809 171.066 63.887 171.668 63.887 c 184.336 63.887 196.527
 65.316 207.926 67.965 c 210.598 64.285 l 195.395 60.371 178.883 58.594 
161.613 58.594 c h
230.215 70.566 m 227.754 74.082 l 262.875 87.836 286.629 114.102 286.629
 144.207 c 286.629 188.535 235.129 224.504 171.668 224.504 c 108.207 224.504
 56.684 188.535 56.684 144.207 c 56.684 120.066 71.961 98.398 96.129 83.668
 c 88.699 72.348 l 50.789 88.422 25.629 116.637 25.629 148.754 c 25.629 
198.73 86.547 239.27 161.613 239.27 c 236.68 239.27 297.621 198.73 297.621
 148.754 c 297.621 115.43 270.527 86.285 230.215 70.566 c h
230.215 70.566 m W n
[0.75 0 0 0.75 -203.194725 -49.27569] concat
/CairoFunction
   << /FunctionType 2
      /Domain [ 0 1 ]
      /C0 [ 0.898039 0.298039 0.0941176 ]
      /C1 [ 0.996078 0.764706 0.313726 ]
      /N 1
   >>
def
   << /ShadingType 2
      /ColorSpace /DeviceRGB
      /Coords [ 319.208221 235.148773 657.652954 269.493958 ]
      /Extend [ true true ]
      /Function CairoFunction
   >>
shfill
Q
Q Q
showpage
%%Trailer
end
%%EOF
